v 20110115 2
C 40600 41300 1 0 0 dsPIC30F4011.sym
{
T 41000 50050 5 10 0 0 0 0 1
device=dsPIC30F4013
T 43300 49900 5 10 1 1 0 0 1
refdes=U?
T 41000 50250 5 10 0 0 0 0 1
footprint=PDIP40
}
C 45900 44100 1 90 0 resistor-1.sym
{
T 45500 44400 5 10 0 0 90 0 1
device=RESISTOR
T 45600 44300 5 10 1 1 90 0 1
refdes=R?
}
C 46900 44100 1 90 0 resistor-1.sym
{
T 46500 44400 5 10 0 0 90 0 1
device=RESISTOR
T 46600 44300 5 10 1 1 90 0 1
refdes=R?
}
C 45500 43100 1 270 0 io-1.sym
{
T 45500 42800 5 10 1 1 270 0 1
net=Data
T 46100 42900 5 10 0 1 270 0 1
device=none
T 45600 42200 5 10 0 1 270 1 1
value=IO
}
C 45200 43100 1 270 0 output-1.sym
{
T 45200 42900 5 10 1 1 270 0 1
device=Clock
}
C 46500 43100 1 270 0 io-1.sym
{
T 46500 42800 5 10 1 1 270 0 1
net=Data
T 47100 42900 5 10 0 1 270 0 1
device=none
T 46600 42200 5 10 0 1 270 1 1
value=IO
}
C 46200 43100 1 270 0 output-1.sym
{
T 46200 42900 5 10 1 1 270 0 1
device=Clock
}
C 47500 43100 1 270 0 io-1.sym
{
T 47500 42800 5 10 1 1 270 0 1
net=Data
T 48100 42900 5 10 0 1 270 0 1
device=none
T 47600 42200 5 10 0 1 270 1 1
value=IO
}
C 47200 43100 1 270 0 output-1.sym
{
T 47200 42900 5 10 1 1 270 0 1
device=Clock
}
N 43800 43800 48000 43800 4
N 45300 43100 45300 43800 4
N 46300 43100 46300 43800 4
N 47300 43100 47300 43800 4
N 43800 43400 48000 43400 4
N 45600 43100 45600 43400 4
N 46600 43100 46600 43400 4
N 47600 43100 47600 43400 4
C 46100 45200 1 0 0 vdd-1.sym
N 45800 44100 45800 43400 4
N 46800 44100 46800 43800 4
N 46800 45000 45800 45000 4
N 46300 45200 46300 45000 4
T 43300 43400 9 24 1 0 90 0 2
PIC

