%!PS-Adobe-3.0 EPSF-3.0
%%Creator: gEDA gschem 1.6.1-20100214-22-ga30f00b
%%CreationDate: Tue Jan  8 17:18:43 2013
%%Title: /home/jjmcd/Documents/Elmer/Elmer166/Document/I2C.sch
%%Author: jjmcd
%%BoundingBox: 0 0 526 623
%%Orientation: Portrait
%%Pages: 1
%%Endcomments
%%BeginProlog
% Prolog for gEDA, define all the functions needed for rendering
% schematics on Postscript devices


% Draw a line from the second coordinate to the first
% x2 y2 x1 y1 width line -
/line {
    setlinewidth
    % pop off first element and moveto
    moveto
    % pop off remaining elements and draw a line segment
    lineto
    % draw it
    stroke
} bind def


% Draw a dot
% x y r dot -
/dot {
    0 360 arc fill
} bind def

% Draw a dot-dashed line, a bunch of lined segments,
% if the array element only has length two, draw a dot.
% [ [x2 y2 x1 y1] [x4 y4 x3 y3] [x5 y5] ... ] width dashed -
/width 0 def
/dashed {
    dup 2.0 div /width exch def
    setlinewidth
    % pop off each line segment and draw it as a dot or as a line
    {
	aload length 2 gt
	{ moveto lineto stroke}
	{ width dot } ifelse
    } forall
} bind def

% Draw an arc segment
% x y r ang1 ang2 width darc -
/darc {
    setlinewidth
    arc stroke
} bind def

% Draw a series of arc segment bits, if the array element only has a single
% element in it, draw a dot.
% [ [sa1 ea1] [sa2 ea2] ... ] x y r width dashedarc -
/x 0 def
/y 0 def
/dashedarc {
    dup /width exch def
    setlinewidth
    /r exch def  
    /y exch def
    /x exch def
    { aload length 1 gt
	{
	    % this element had two angles in it
	    % extract start and stop angles
	    x y r   % drop x y and r onto stack
		    % at this point we have: sa ea x y r
		    % we need                      x y r sa ea
		    % so..
	    5 -2 roll
	    % and add it to the current path, and draw it
	    arc stroke
	} {
	    % this element only had one angle in it, place a
	    % filled dot at the appropriate place
	    % compute center point of the arc using the angle
	    % that is on the top of the stack
	    dup   		% angle angle
	    cos r mul x add 	% angle x
	    exch		% x angle
	    sin r mul y add	% x y
	    width		% x y width/2
	    dot			% draw the dot
	} ifelse
    } forall

    % Now draw it
    stroke
} bind def

% Draw a box
% width height x y linethickness box -
/box {
    setlinewidth
    moveto
    exch dup 0 rlineto	 % w h, h w w 0      -- Draw bottom line
    exch 0 exch rlineto	 % h w, w h 0, w 0 h -- Draw right line 
    neg 0 rlineto	 % w, -w 0           -- Draw Top line
    closepath		 % finish and draw it
    stroke
} bind def			     

% Draw a filled box
% width height x y fbox -
/fbox {
    moveto
    exch dup 0 rlineto	
    exch 0 exch rlineto	
    neg 0 rlineto		
    closepath			
    fill			
} bind def

% Font reincoding utilities

% ISOLatin1Encoding, extended with remaining uncoded glyphs
/ISOLatin1Extended [
    /.notdef /Lslash /lslash /OE /oe /Scaron /scaron /Zcaron /zcaron
    /Ydieresis /trademark /bullet /dagger /daggerdbl /ellipsis /emdash
    /endash /fi /fl /florin /fraction /guilsinglleft /guilsinglright
    /perthousand /quotedblbase /quotedblleft /quotedblright
    /quotesinglbase /quotesingle /.notdef /.notdef /.notdef /space
    /exclam /quotedbl /numbersign /dollar /percent /ampersand
    /quoteright /parenleft /parenright /asterisk /plus /comma /minus
    /period /slash /zero /one /two /three /four /five /six /seven /eight
    /nine /colon /semicolon /less /equal /greater /question /at /A /B /C
    /D /E /F /G /H /I /J /K /L /M /N /O /P /Q /R /S /T /U /V /W /X /Y /Z
    /bracketleft /backslash /bracketright /asciicircum /underscore
    /quoteleft /a /b /c /d /e /f /g /h /i /j /k /l /m /n /o /p /q /r /s
    /t /u /v /w /x /y /z /braceleft /bar /braceright /asciitilde
    /.notdef /.notdef /.notdef /.notdef /.notdef /.notdef /.notdef
    /.notdef /.notdef /.notdef /.notdef /.notdef /.notdef /.notdef
    /.notdef /.notdef /.notdef /dotlessi /grave /acute /circumflex
    /tilde /macron /breve /dotaccent /dieresis /.notdef /ring /cedilla
    /.notdef /hungarumlaut /ogonek /caron /space /exclamdown /cent
    /sterling /currency /yen /brokenbar /section /dieresis /copyright
    /ordfeminine /guillemotleft /logicalnot /hyphen /registered /macron
    /degree /plusminus /twosuperior /threesuperior /acute /mu /paragraph
    /periodcentered /cedilla /onesuperior /ordmasculine /guillemotright
    /onequarter /onehalf /threequarters /questiondown /Agrave /Aacute
    /Acircumflex /Atilde /Adieresis /Aring /AE /Ccedilla /Egrave /Eacute
    /Ecircumflex /Edieresis /Igrave /Iacute /Icircumflex /Idieresis /Eth
    /Ntilde /Ograve /Oacute /Ocircumflex /Otilde /Odieresis /multiply
    /Oslash /Ugrave /Uacute /Ucircumflex /Udieresis /Yacute /Thorn
    /germandbls /agrave /aacute /acircumflex /atilde /adieresis /aring
    /ae /ccedilla /egrave /eacute /ecircumflex /edieresis /igrave
    /iacute /icircumflex /idieresis /eth /ntilde /ograve /oacute
    /ocircumflex /otilde /odieresis /divide /oslash /ugrave /uacute
    /ucircumflex /udieresis /yacute /thorn /ydieresis
] def

% `new-font-name' `encoding-vector' `old-font-name' RE -
/RE {
    findfont
    dup maxlength dict begin {
        1 index /FID ne { def } { pop pop } ifelse
    } forall
    /Encoding exch def
    dup /FontName exch def
    currentdict end definefont pop
} bind def

% Text handling functions, select the font and scale it, then we need
% only to apply the appropriate transformations to get the text
% justified into the right spots.  The bad thing here is that we don't
% do any kerning, so the output may look a bit strange.

% compute the height of one character and return lly and ury
% (char) charheight lly ury
/charheight {
    gsave			% push graphics state
	newpath			% clear current path
	0 0 moveto		% Set current point
	false charpath		% get path
	flattenpath		% flatten path
	pathbbox		% stack = llx lly urx ury
	exch pop		% stack = llx lly ury
	3 -1 roll pop		% stack = lly ury
    grestore			% pop graphics state
} bind def

% compute the height of a string, one character at a time
% (string) stringheight lly ury
/lly 0.0 def
/ury 0.0 def

/stringheight {
    /lly 0.0 def			% initial value of heightmin
    /ury 0.0 def			% initial value of heightmax
    {				% work through string
	( ) dup 0 4 -1 roll put	% create one character string
	charheight		% measure it's height
	dup ury gt {		% if ury gt heightmax
	    /ury exch def	% update with new value
	} {
	    pop			% else discard ury
	} ifelse
	dup lly lt {		% if lly lt heightmin
	    /lly exch def	% update with new value
	} {
	    pop			% else discard lly
	} ifelse
    } forall
    lly ury			% Return the results
} bind def

% calculate the string width taking into account the escapes.
/mystrx 0.0 def
/mystry 0.0 def
/mystresc false def

/mystringwidth {
    /mystrx 0.0 def
    /mystry 0.0 def
    /mystresc false def
    {				% work through string
	% did we process the escape character last?
	mystresc {
	    % last character was escape
	    % handle the escape
	    % is it an _ = 95?
	    dup 95 eq {
		pop  % we don't need the character anymore
		% toggle drawing overbars
		0.0 0.0 % make it like it never happened...
	    } {
		% otherwise measure the character 
		(\\ ) dup 1 4 -1 roll put % count a \ and the character
		stringwidth
	    } ifelse
	    % and reset the flag
	    /mystresc false def
	} {
	    % last character was not escape
	    % is this escape
	    dup 92 eq {
		% yes, escape character, set flag
		/mystresc true def
		pop % drop character
		0.0 0.0 % make like this character has no width and height
	    } {
		( ) dup 0 4 -1 roll put	% create one character string
		stringwidth		% measure it's height/width
	    } ifelse
	} ifelse
	% accumulate x and y movements
	mystry add /mystry exch def
	mystrx add /mystrx exch def
    } forall
    mystrx mystry % drop results on stack
} bind def

% Render a string with overbars
%
/escaped false def
/drawoverbar false def
/fontsize 0.0 def

%string1 string2 append -
/append {
    2 copy length exch length add % find new length
    string dup % string1 string2 string string
    4 2 roll % string string string1 string2
    2 index 0 3 index
    % string string string1 string2 string 0 string1
    putinterval % string string string1 string2
    exch length exch putinterval
} bind def

% If drawoverbar is set, draw a line of the same length as the given string
% string overbarshowline -
/overbarshowline {
    % print overbar if necessary
    stringwidth pop 0
    drawoverbar {
        rlineto
        gsave stroke grestore
    } {
        rmoveto
    } ifelse
} bind def

% Draws overbars for the given string, then shows the string itself
% string overbarshow
/overbarshow {
    /overbarshowacc () def
    /overbarshowtxt () def

    gsave
    fontsize 10.0 div setlinewidth
    0 fontsize rmoveto  % move to (0,overbarheight)

    {				% work through string
	escaped {
	    % the last character was the escape
	    % handle the escape
	    % is it an _ = 95?
	    dup 95 eq {
		pop  % we don't need the character anymore
                overbarshowacc overbarshowline
                % toggle drawing overbars
		/drawoverbar drawoverbar not def

                % Append the contents off the accumulator to the text
                % string we're eventually going to show
                /overbarshowtxt overbarshowtxt overbarshowacc append def

                % clear accumulator
                /overbarshowacc () def
	    } {
                % add to accumulator
                (\\ ) dup 1 4 -1 roll put
                overbarshowacc exch append
                /overbarshowacc exch def
	    } ifelse
	    % and reset the flag
	    /escaped false def
	} {
	    % check for escape character \ = 92
	    dup 92 eq {
		% yes, escape character, set flag
		/escaped true def
		pop % drop character
	    } {
                % add to accumulator
                ( ) dup 0 4 -1 roll put
                overbarshowacc exch append
                /overbarshowacc exch def
	    } ifelse
	} ifelse
    } forall
    % Catch any leftovers
    overbarshowacc overbarshowline
    overbarshowtxt overbarshowacc append

    grestore
    show
} bind def

% 
% hcenter rjustify vcenter vjustify spacing [(line1) (line2) ... ] rot x y size text -
/stringw 0.0 def
/stringh 0.0 def
/spacing 0.0 def
/strings [ ] def
/stringtxt ( ) def
/stringcount 0 def
/rot 0.0 def

/text {
    gsave	        % save state for later
    /drawoverbar false def      % start by not drawing overbars

    dup /fontsize exch def  % save font size for corrections later
    % do font selection 
    /gEDAFont findfont
    exch scalefont
    setfont

    % set up coordinates
    translate           % move origin to given point
    rotate		% rotate so that text is drawn
    0 0 moveto
    dup length /stringcount exch def			% Get number of strings
    /strings exch def     				% save strings
    /spacing exch def
    % do we have more than 1 string to render?
    stringcount 1 eq {
	/stringtxt strings aload pop def		% get the string 
	/stringw stringtxt mystringwidth pop neg def	% get the -width
	/stringh stringtxt stringheight exch pop neg def% get the -height

	% First do vertical calculations
	% hcenter rjustify vcenter vjustify 
	% vertical justification
	{ 0 stringh rmoveto } if 
	% vertical center
	{ 0 stringh 0.3571425 mul rmoveto } if  % not 0.5, so that
						% it looks nicer
	% Then do horizontal calculations
	% right justify
	{ stringw 0 rmoveto } if
	% center
	{ stringw 2.0 div 0 rmoveto } if
	% Draw the text
	stringtxt overbarshow
    } {
	% More than one line, compute bounding box for the text

	% vertical height, don't use the actual hieght of the characters
	% assume that the user wants to make the baselines line up with two
	% text boxes placed side by side
	/stringh stringcount spacing mul neg def
	% Now figure out horizontal size, this amounts to keeping track
	% of the longest string
	/stringw 0.0 def
	strings {
	    mystringwidth pop
	    dup stringw gt {
		/stringw exch def
	    } {
		pop
	    } ifelse
	} forall
	/stringw stringw neg def 	% get the -width
	
	% First do vertical calculations
	% hcenter rjustify vcenter vjustify 
	% vertical justification
	{ 0 stringh fontsize add rmoveto } if 
	% vertical center
	{ 0 stringh 0.5 mul rmoveto } if 
	% Then do horizontal calculations
	% right justify
	{ stringw 0 rmoveto } if
	% center
	{ stringw 2.0 div 0 rmoveto } if
	% now move up to the first line and begin rendering
	0 stringcount 1 sub spacing mul rmoveto
	strings {
	    gsave		% Save starting point
	    overbarshow		% render the text
	    grestore
	    0 spacing neg rmoveto
	} forall
    } ifelse
    grestore 	% Restore old state
} bind def


%%EndProlog
%%Page: 1 1
/gEDAFont ISOLatin1Extended /Helvetica RE
2 setlinecap
0.072000 0.072000 scale
0 0 translate
1.000000 1.000000 scale
-40695 -41400 translate
gsave
41000 41400 43500 41400 10 line
43500 41400 43500 49800 10 line
43500 49800 41000 49800 10 line
41000 49800 41000 41400 10 line
40900 49400 40700 49400 10 line
41000 49000 40700 49000 10 line
41000 48600 40700 48600 10 line
41000 48200 40700 48200 10 line
41000 47800 40700 47800 10 line
41000 47400 40700 47400 10 line
41000 47000 40700 47000 10 line
41000 46600 40700 46600 10 line
41000 46200 40700 46200 10 line
41000 45800 40700 45800 10 line
41000 45400 40700 45400 10 line
41000 45000 40700 45000 10 line
41000 44600 40700 44600 10 line
41000 44200 40700 44200 10 line
41000 43800 40700 43800 10 line
41000 43400 40700 43400 10 line
41000 43000 40700 43000 10 line
41000 42600 40700 42600 10 line
41000 42200 40700 42200 10 line
41000 41800 40700 41800 10 line
43800 41800 43500 41800 10 line
43800 42200 43500 42200 10 line
43800 42600 43500 42600 10 line
43800 43000 43500 43000 10 line
43800 43400 43500 43400 10 line
43800 43800 43500 43800 10 line
43800 44200 43500 44200 10 line
43800 44600 43500 44600 10 line
43800 45000 43500 45000 10 line
43800 45400 43500 45400 10 line
43800 45800 43500 45800 10 line
43800 46200 43500 46200 10 line
43800 46600 43500 46600 10 line
43800 47000 43500 47000 10 line
43800 47400 43500 47400 10 line
43800 47800 43500 47800 10 line
43800 48200 43500 48200 10 line
43800 48600 43500 48600 10 line
43800 49000 43500 49000 10 line
43800 49400 43500 49400 10 line
41050 49525 41450 49525 10 line
40950 49400 50 0 360 10 darc
gsave
false true false false 208.000000 [(1) ] 0 40900 49450 144.444443 text
grestore
gsave
false false false false 208.000000 [(MCLR) ] 0 41050 49400 144.444443 text
grestore
gsave
false true false false 208.000000 [(2) ] 0 40900 49050 144.444443 text
grestore
gsave
false false false false 208.000000 [(RB0/AN0/CN2/Vref+) ] 0 41050 49000 144.444443 text
grestore
gsave
false true false false 208.000000 [(3) ] 0 40900 48650 144.444443 text
grestore
gsave
false false false false 208.000000 [(RB1/AN1/CN3/Vref-) ] 0 41050 48550 144.444443 text
grestore
gsave
false true false false 208.000000 [(4) ] 0 40900 48250 144.444443 text
grestore
gsave
false false false false 208.000000 [(RB2/AN2/SS1/CN4) ] 0 41050 48150 144.444443 text
grestore
gsave
false true false false 208.000000 [(5) ] 0 40900 47850 144.444443 text
grestore
gsave
false false false false 208.000000 [(RB3/AN3/CN5/INDX) ] 0 41050 47700 144.444443 text
grestore
gsave
false true false false 208.000000 [(6) ] 0 40900 47450 144.444443 text
grestore
gsave
false false false false 208.000000 [(RB4/AN4/CN6/IC7/QEA) ] 0 41050 47250 144.444443 text
grestore
gsave
false true false false 208.000000 [(7) ] 0 40900 47050 144.444443 text
grestore
gsave
false false false false 208.000000 [(RB5/AN5/CN7/IC8/QEB) ] 0 41050 46900 144.444443 text
grestore
gsave
false true false false 208.000000 [(8) ] 0 40900 46650 144.444443 text
grestore
gsave
false false false false 208.000000 [(RB6/AN6/OCFA) ] 0 41050 46500 144.444443 text
grestore
gsave
false true false false 208.000000 [(9) ] 0 40900 46250 144.444443 text
grestore
gsave
false false false false 208.000000 [(RB7/AN7) ] 0 41050 46100 144.444443 text
grestore
gsave
false true false false 208.000000 [(10) ] 0 40900 45850 144.444443 text
grestore
gsave
false false false false 208.000000 [(RB8/AN8) ] 0 41050 45700 144.444443 text
grestore
gsave
false true false false 208.000000 [(11) ] 0 40900 45450 144.444443 text
grestore
gsave
false false false false 208.000000 [(Vdd) ] 0 41050 45300 144.444443 text
grestore
gsave
false true false false 208.000000 [(12) ] 0 40900 45050 144.444443 text
grestore
gsave
false false false false 208.000000 [(Vss) ] 0 41050 44900 144.444443 text
grestore
gsave
false true false false 208.000000 [(13) ] 0 40900 44650 144.444443 text
grestore
gsave
false false false false 208.000000 [(CLKI/OSC1) ] 0 41050 44500 144.444443 text
grestore
gsave
false true false false 208.000000 [(14) ] 0 40900 44250 144.444443 text
grestore
gsave
false false false false 208.000000 [(RC15/CLKO/OSC2) ] 0 41050 44100 144.444443 text
grestore
gsave
false true false false 208.000000 [(15) ] 0 40900 43850 144.444443 text
grestore
gsave
false false false false 208.000000 [(RC13/U1ATX/SOSCI/CN1) ] 0 41050 43700 144.444443 text
grestore
gsave
false true false false 208.000000 [(16) ] 0 40900 43450 144.444443 text
grestore
gsave
false false false false 208.000000 [(RC14/U1ARX/SOSCO/CN0) ] 0 41050 43300 144.444443 text
grestore
gsave
false true false false 208.000000 [(17) ] 0 40900 43050 144.444443 text
grestore
gsave
false false false false 208.000000 [(RE8/INT0/FLTA) ] 0 41050 42900 144.444443 text
grestore
gsave
false true false false 208.000000 [(18) ] 0 40900 42650 144.444443 text
grestore
gsave
false false false false 208.000000 [(RD1/IC2/INT2/OC2) ] 0 41050 42500 144.444443 text
grestore
gsave
false true false false 208.000000 [(19) ] 0 40900 42250 144.444443 text
grestore
gsave
false false false false 208.000000 [(RD3/OC4) ] 0 41050 42100 144.444443 text
grestore
gsave
false true false false 208.000000 [(20) ] 0 40900 41850 144.444443 text
grestore
gsave
false false false false 208.000000 [(Vss) ] 0 41050 41700 144.444443 text
grestore
gsave
false false false false 208.000000 [(21) ] 0 43600 41850 144.444443 text
grestore
gsave
false true false false 208.000000 [(Vdd) ] 0 43450 41800 144.444443 text
grestore
gsave
false false false false 208.000000 [(22) ] 0 43600 42250 144.444443 text
grestore
gsave
false true false false 208.000000 [(RD2/OC3) ] 0 43450 42200 144.444443 text
grestore
gsave
false false false false 208.000000 [(23) ] 0 43600 42650 144.444443 text
grestore
gsave
false true false false 208.000000 [(RD0/IC1/INT1/OC1) ] 0 43450 42600 144.444443 text
grestore
gsave
false false false false 208.000000 [(24) ] 0 43600 43050 144.444443 text
grestore
gsave
false true false false 208.000000 [(RF6/SCK1) ] 0 43450 43000 144.444443 text
grestore
gsave
false false false false 208.000000 [(25) ] 0 43600 43450 144.444443 text
grestore
gsave
false true false false 208.000000 [(PGD/RF3/U1TX/SDO1) ] 0 43450 43450 144.444443 text
grestore
gsave
false false false false 208.000000 [(26) ] 0 43600 43850 144.444443 text
grestore
gsave
false true false false 208.000000 [(PGC/RF2/U1RX/SDI1) ] 0 43450 43850 144.444443 text
grestore
gsave
false false false false 208.000000 [(27) ] 0 43600 44250 144.444443 text
grestore
gsave
false true false false 208.000000 [(RF5/U2TX/CN18) ] 0 43450 44200 144.444443 text
grestore
gsave
false false false false 208.000000 [(28) ] 0 43600 44650 144.444443 text
grestore
gsave
false true false false 208.000000 [(RF4/U2RX/CN17) ] 0 43450 44600 144.444443 text
grestore
gsave
false false false false 208.000000 [(29) ] 0 43600 45050 144.444443 text
grestore
gsave
false true false false 208.000000 [(RF1/C1TX) ] 0 43450 45000 144.444443 text
grestore
gsave
false false false false 208.000000 [(30) ] 0 43600 45450 144.444443 text
grestore
gsave
false true false false 208.000000 [(RF0/C1RX) ] 0 43450 45400 144.444443 text
grestore
gsave
false false false false 208.000000 [(31) ] 0 43600 45850 144.444443 text
grestore
gsave
false true false false 208.000000 [(Vss) ] 0 43450 45800 144.444443 text
grestore
gsave
false false false false 208.000000 [(32) ] 0 43600 46250 144.444443 text
grestore
gsave
false true false false 208.000000 [(Vdd) ] 0 43450 46200 144.444443 text
grestore
gsave
false false false false 208.000000 [(33) ] 0 43600 46650 144.444443 text
grestore
gsave
false true false false 208.000000 [(RE5/PWM3H) ] 0 43450 46600 144.444443 text
grestore
gsave
false false false false 208.000000 [(34) ] 0 43600 47050 144.444443 text
grestore
gsave
false true false false 208.000000 [(RE4/PWM3L) ] 0 43450 47000 144.444443 text
grestore
gsave
false false false false 208.000000 [(35) ] 0 43600 47450 144.444443 text
grestore
gsave
false true false false 208.000000 [(RE3/PWM2H) ] 0 43450 47400 144.444443 text
grestore
gsave
false false false false 208.000000 [(36) ] 0 43600 47850 144.444443 text
grestore
gsave
false true false false 208.000000 [(RE2/PWM2L) ] 0 43450 47800 144.444443 text
grestore
gsave
false false false false 208.000000 [(37) ] 0 43600 48250 144.444443 text
grestore
gsave
false true false false 208.000000 [(RE1/PWM1H) ] 0 43450 48300 144.444443 text
grestore
gsave
false false false false 208.000000 [(38) ] 0 43600 48650 144.444443 text
grestore
gsave
false true false false 208.000000 [(RE0/PWM1L) ] 0 43450 48700 144.444443 text
grestore
gsave
false false false false 208.000000 [(39) ] 0 43600 49050 144.444443 text
grestore
gsave
false true false false 208.000000 [(AVss) ] 0 43450 49000 144.444443 text
grestore
gsave
false false false false 208.000000 [(40) ] 0 43600 49450 144.444443 text
grestore
gsave
false true false false 208.000000 [(AVdd) ] 0 43450 49400 144.444443 text
grestore
gsave
false false false false 260.000000 [(dsPIC30F4011) ] 0 41000 49850 180.555557 text
grestore
grestore
gsave
false false false false 260.000000 [(U?) ] 0 43300 49900 180.555557 text
grestore
gsave
45700 44700 45900 44600 10 line
45900 44600 45700 44500 10 line
45700 44500 45900 44400 10 line
45900 44400 45700 44300 10 line
45700 44700 45900 44800 10 line
45900 44800 45800 44850 10 line
45800 45000 45800 44850 10 line
45800 44100 45800 44252 10 line
45700 44301 45800 44250 10 line
grestore
gsave
false false false false 260.000000 [(R?) ] 90 45600 44300 180.555557 text
grestore
gsave
46700 44700 46900 44600 10 line
46900 44600 46700 44500 10 line
46700 44500 46900 44400 10 line
46900 44400 46700 44300 10 line
46700 44700 46900 44800 10 line
46900 44800 46800 44850 10 line
46800 45000 46800 44850 10 line
46800 44100 46800 44252 10 line
46700 44301 46800 44250 10 line
grestore
gsave
false false false false 260.000000 [(R?) ] 90 46600 44300 180.555557 text
grestore
gsave
45600 43100 45600 42900 10 line
45700 42400 45600 42300 10 line
45600 42300 45500 42400 10 line
45600 42900 45500 42800 10 line
45700 42800 45600 42900 10 line
45700 42800 45700 42400 10 line
45500 42800 45500 42400 10 line
grestore
gsave
false false false false 260.000000 [(Data) ] 270 45500 42800 180.555557 text
grestore
gsave
45300 43100 45300 42900 10 line
45400 42900 45200 42900 10 line
45400 42900 45400 42400 10 line
45400 42400 45300 42300 10 line
45300 42300 45200 42400 10 line
45200 42400 45200 42900 10 line
grestore
gsave
false false false false 260.000000 [(Clock) ] 270 45200 42900 180.555557 text
grestore
gsave
46600 43100 46600 42900 10 line
46700 42400 46600 42300 10 line
46600 42300 46500 42400 10 line
46600 42900 46500 42800 10 line
46700 42800 46600 42900 10 line
46700 42800 46700 42400 10 line
46500 42800 46500 42400 10 line
grestore
gsave
46300 43100 46300 42900 10 line
46400 42900 46200 42900 10 line
46400 42900 46400 42400 10 line
46400 42400 46300 42300 10 line
46300 42300 46200 42400 10 line
46200 42400 46200 42900 10 line
grestore
gsave
false false false false 260.000000 [(Data) ] 270 46500 42800 180.555557 text
grestore
gsave
false false false false 260.000000 [(Clock) ] 270 46200 42900 180.555557 text
grestore
gsave
47600 43100 47600 42900 10 line
47700 42400 47600 42300 10 line
47600 42300 47500 42400 10 line
47600 42900 47500 42800 10 line
47700 42800 47600 42900 10 line
47700 42800 47700 42400 10 line
47500 42800 47500 42400 10 line
grestore
gsave
47300 43100 47300 42900 10 line
47400 42900 47200 42900 10 line
47400 42900 47400 42400 10 line
47400 42400 47300 42300 10 line
47300 42300 47200 42400 10 line
47200 42400 47200 42900 10 line
grestore
gsave
false false false false 260.000000 [(Data) ] 270 47500 42800 180.555557 text
grestore
gsave
false false false false 260.000000 [(Clock) ] 270 47200 42900 180.555557 text
grestore
43800 43800 48000 43800 10 line
45300 43100 45300 43800 10 line
46300 43100 46300 43800 10 line
47300 43100 47300 43800 10 line
43800 43400 48000 43400 10 line
45600 43100 45600 43400 10 line
46600 43100 46600 43400 10 line
47600 43100 47600 43400 10 line
gsave
46300 45200 46300 45400 10 line
46150 45400 46450 45400 10 line
gsave
false false false false 208.000000 [(Vdd) ] 0 46175 45450 144.444443 text
grestore
grestore
45800 44100 45800 43400 10 line
46800 44100 46800 43800 10 line
46800 45000 45800 45000 10 line
46300 45200 46300 45000 10 line
gsave
false false false false 624.000000 [(PIC) () ] 90 43300 43400 433.333344 text
grestore
60 60 47970 43770 fbox
newpath
45300 43800
25
0 360 arc
fill
newpath
46300 43800
25
0 360 arc
fill
newpath
47300 43800
25
0 360 arc
fill
newpath
46800 43800
25
0 360 arc
fill
newpath
45300 43800
25
0 360 arc
fill
newpath
45300 43800
25
0 360 arc
fill
newpath
46300 43800
25
0 360 arc
fill
newpath
46300 43800
25
0 360 arc
fill
newpath
47300 43800
25
0 360 arc
fill
newpath
47300 43800
25
0 360 arc
fill
60 60 47970 43370 fbox
newpath
45600 43400
25
0 360 arc
fill
newpath
46600 43400
25
0 360 arc
fill
newpath
47600 43400
25
0 360 arc
fill
newpath
45800 43400
25
0 360 arc
fill
newpath
45600 43400
25
0 360 arc
fill
newpath
45600 43400
25
0 360 arc
fill
newpath
46600 43400
25
0 360 arc
fill
newpath
46600 43400
25
0 360 arc
fill
newpath
47600 43400
25
0 360 arc
fill
newpath
47600 43400
25
0 360 arc
fill
newpath
45800 43400
25
0 360 arc
fill
newpath
45800 43400
25
0 360 arc
fill
newpath
46800 43800
25
0 360 arc
fill
newpath
46800 43800
25
0 360 arc
fill
newpath
46300 45000
25
0 360 arc
fill
newpath
46300 45000
25
0 360 arc
fill
newpath
46300 45000
25
0 360 arc
fill
showpage
%%End
